Chapter 4 Missing values | Golden Cross
…
##   [1] 12 12 12 12 12 12 12 12 12 12 12 12 12 12 12 12 11 11 11 11 11 11 11 11 11 11 11 11 11 11 11 11
##  [33] 11 11 11 11 11 11 11 11 11 11 11 11 11 11 11 11 11 11 11 11 11 11 11 11 11 11 11 11 11 11 11 11
##  [65] 11 11 11 11 11 11 11 11 11 11 11 11 11 11 11 11 11 11 11 11 11 11 11 11 11 11 11 11 11 10 10 10
##  [97] 10 10 10 10 10 10 10 10 10 10 10 10  9  9  9  9  9  9  9  9  9  9  9  9  9  9  9  9  9  9  9  9
## [129]  9  9  9  9  9  9  9  9  9  9  9  9  9  9  9  9  9  9  9  9  9  9  9  8  8  8  8  8  8  8  7  7
## [161]  7  7  7  7  7  7  7  7  7  7  6  5  0

We can see that there are lots of missing values in the data. To better understand there distribution, we will transfer the missing value into a binary variable “missing”, then plot a heatmap to show the missing value.

## # A tibble: 3,633 × 4
##    id    key   value                                                   missing
##    <chr> <chr> <chr>                                                   <chr>  
##  1 1     url   http://marvel.wikia.com/Henry_Pym_(Earth-616)           no     
##  2 2     url   http://marvel.wikia.com/Janet_van_Dyne_(Earth-616)      no     
##  3 3     url   http://marvel.wikia.com/Anthony_Stark_(Earth-616)       no     
##  4 4     url   http://marvel.wikia.com/Robert_Bruce_Banner_(Earth-616) no     
##  5 5     url   http://marvel.wikia.com/Thor_Odinson_(Earth-616)        no     
##  6 6     url   http://marvel.wikia.com/Richard_Jones_(Earth-616)       no     
##  7 7     url   http://marvel.wikia.com/Steven_Rogers_(Earth-616)       no     
##  8 8     url   http://marvel.wikia.com/Clint_Barton_(Earth-616)        no     
##  9 9     url   http://marvel.wikia.com/Pietro_Maximoff_(Earth-616)     no     
## 10 10    url   http://marvel.wikia.com/Wanda_Maximoff_(Earth-616)      no     
## # … with 3,623 more rows
…
